{
    "interactionModel": {
        "languageModel": {
            "invocationName": "a molpro",
            "modelConfiguration": {
                "fallbackIntentSensitivity": {
                    "level": "LOW"
                }
            },
            "intents": [
                {
                    "name": "AMAZON.CancelIntent",
                    "samples": []
                },
                {
                    "name": "AMAZON.HelpIntent",
                    "samples": []
                },
                {
                    "name": "AMAZON.StopIntent",
                    "samples": []
                },
                {
                    "name": "AMAZON.NavigateHomeIntent",
                    "samples": []
                },
                {
                    "name": "AMAZON.FallbackIntent",
                    "samples": []
                },
                {
                    "name": "CreateProjectIntent",
                    "slots": [
                        {
                            "name": "project_name",
                            "type": "AMAZON.Musician"
                        }
                    ],
                    "samples": [
                        "create {project_name} Molpro project",
                        "create a project named {project_name}",
                        "create a file named {project_name}",
                        "create {project_name} project",
                        "create {project_name} job",
                        "create {project_name} file"
                    ]
                },
                {
                    "name": "OpenProjectIntent",
                    "slots": [
                        {
                            "name": "project_name",
                            "type": "AMAZON.Musician"
                        },
                        {
                            "name": "property",
                            "type": "property"
                        },
                        {
                            "name": "method",
                            "type": "list_of_methods"
                        }
                    ],
                    "samples": [
                        "what is the {property} for {project_name}",
                        "open {project_name} project and output the {property} value",
                        "open the {project_name} and output the {property}",
                        "open the {project_name} file and output the {method} {property}",
                        "output the {method} {property} of {project_name}",
                        "what is the {method} {property} of {project_name}",
                        "open the {project_name} project and output the {method} {property} value",
                        "output the {property} of {project_name}",
                        "output the {property} value for {project_name}",
                        "what is the {property} of {project_name}",
                        "what is the {property} value for {project_name}",
                        "open the {project_name} project and output the {property} value",
                        "open the {project_name} job and output the {property} value",
                        "open the {project_name} file and output the {property} value"
                    ]
                },
                {
                    "name": "StatusIntent",
                    "slots": [
                        {
                            "name": "molecule",
                            "type": "AMAZON.Musician"
                        }
                    ],
                    "samples": [
                        "what is the status of the {molecule} job",
                        "is {molecule} job finished",
                        "what is the status of {molecule}",
                        "what is the status of {molecule} job",
                        "is the current job completed",
                        "is the current project finished",
                        "is the current job finished",
                        "is the last calculation completed",
                        "is the last job completed",
                        "is the last job finished",
                        "is the last calculation finished"
                    ]
                },
                {
                    "name": "LatestProjectIntent",
                    "slots": [],
                    "samples": [
                        "what is the latest project",
                        "what is the name of the most recent file",
                        "what is the name of the most recent project",
                        "what is the name of the latest project",
                        "what is the name of the latest file"
                    ]
                },
                {
                    "name": "ListRecentProjectsIntent",
                    "slots": [
                        {
                            "name": "index",
                            "type": "AMAZON.NUMBER"
                        }
                    ],
                    "samples": [
                        "list the last {index} projects",
                        "what are the names of the last {index} projects",
                        "what are the {index} most recent projects",
                        "what are the last {index} projects"
                    ]
                },
                {
                    "name": "ExtendedListIntent",
                    "slots": [],
                    "samples": [
                        "access the long list",
                        "access the extended list",
                        "long list",
                        "extended list",
                        "access extended list"
                    ]
                },
                {
                    "name": "SetUpMolproJobIntent",
                    "slots": [
                        {
                            "name": "compound_name",
                            "type": "AMAZON.Musician"
                        }
                    ],
                    "samples": [
                        "set up {compound_name} Molpro job",
                        "start {compound_name} Molpro job",
                        "set up {compound_name} job",
                        "set up a Molpro job on {compound_name}",
                        "{compound_name} search in chemspider",
                        "chemspider {compound_name} search",
                        "chemspider search {compound_name}",
                        "search {compound_name} in chemspider",
                        "search for {compound_name} in chemspider"
                    ]
                },
                {
                    "name": "ChooseChemSpiderIDIntent",
                    "slots": [
                        {
                            "name": "id",
                            "type": "AMAZON.NUMBER"
                        }
                    ],
                    "samples": [
                        "{id}",
                        "{id} id",
                        "choose chemspider id {id}",
                        "chemspider {id}",
                        "id {id}",
                        "Chemspider id {id}"
                    ]
                },
                {
                    "name": "CalculationTypeIntent",
                    "slots": [
                        {
                            "name": "calculation_type",
                            "type": "calc_type"
                        }
                    ],
                    "samples": [
                        "{calculation_type} mode",
                        "{calculation_type}"
                    ]
                },
                {
                    "name": "LevelOfTheoryIntent",
                    "slots": [
                        {
                            "name": "level_of_theory",
                            "type": "method"
                        }
                    ],
                    "samples": [
                        "{level_of_theory}"
                    ]
                },
                {
                    "name": "ChooseMethodIntent",
                    "slots": [
                        {
                            "name": "final_method",
                            "type": "list_of_methods"
                        }
                    ],
                    "samples": [
                        "{final_method} method",
                        "{final_method}"
                    ]
                },
                {
                    "name": "BasisSetIntent",
                    "slots": [
                        {
                            "name": "basis_set",
                            "type": "list_basis_set"
                        },
                        {
                            "name": "type",
                            "type": "type_slot"
                        }
                    ],
                    "samples": [
                        "{type} {basis_set}",
                        "{basis_set} basis set",
                        "{basis_set} basis ",
                        "{basis_set}"
                    ]
                },
                {
                    "name": "ChooseFunctionalIntent",
                    "slots": [
                        {
                            "name": "functional",
                            "type": "functional_list"
                        }
                    ],
                    "samples": [
                        "{functional} functional",
                        "{functional}"
                    ]
                },
                {
                    "name": "CoupledClusterIntent",
                    "slots": [
                        {
                            "name": "treatment",
                            "type": "treatment_type"
                        }
                    ],
                    "samples": [
                        "{treatment} treatments",
                        "{treatment}",
                        "perturbative treatment of {treatment}",
                        "{treatment} correction",
                        "perturbative {treatment} correction"
                    ]
                },
                {
                    "name": "CalculateZPEIntent",
                    "slots": [
                        {
                            "name": "molecule",
                            "type": "AMAZON.Musician"
                        }
                    ],
                    "samples": [
                        "calculate the zero point energy of {molecule}",
                        "calculate the zpe",
                        "calculate the zero point energy",
                        "calculate the zero-point energy for {molecule}",
                        "calculate the zpe for {molecule}",
                        "calculate the zero point energy for {molecule}"
                    ]
                },
                {
                    "name": "ChooseBasisFamilyIntent",
                    "slots": [
                        {
                            "name": "basis_family",
                            "type": "basis_family"
                        }
                    ],
                    "samples": [
                        "{basis_family} basis",
                        "{basis_family} basis set family",
                        "{basis_family} basis set",
                        "{basis_family}"
                    ]
                },
                {
                    "name": "FinalDecisionIntent",
                    "slots": [
                        {
                            "name": "decision",
                            "type": "decision_type"
                        }
                    ],
                    "samples": [
                        "{decision}"
                    ]
                },
                {
                    "name": "StartMolarEnergyIntent",
                    "slots": [],
                    "samples": [
                        "calculate energy change",
                        "calculate the energy change",
                        "energy change",
                        "molar energy change",
                        "calculate molar energy change",
                        "calculate the molar energy change"
                    ]
                },
                {
                    "name": "GetReactantsIntent",
                    "slots": [
                        {
                            "name": "reactants",
                            "type": "AMAZON.Musician",
                            "multipleValues": {
                                "enabled": true
                            }
                        }
                    ],
                    "samples": [
                        "reactants are {reactants}",
                        "reactant is {reactants}",
                        "reaction has {reactants} as reactants",
                        "reactant list contains {reactants}",
                        "the reactants are {reactants}",
                        "reactant list includes {reactants}",
                        "reactants include {reactants}"
                    ]
                },
                {
                    "name": "GetProductsIntent",
                    "slots": [
                        {
                            "name": "products",
                            "type": "AMAZON.Musician",
                            "multipleValues": {
                                "enabled": true
                            }
                        }
                    ],
                    "samples": [
                        "products are {products}",
                        "product is {products}",
                        "reaction has {products} as products",
                        "product list contains {products}",
                        "the products are {products}",
                        "product list includes {products}",
                        "products include {products}"
                    ]
                },
                {
                    "name": "GetStoichiometriesIntent",
                    "slots": [
                        {
                            "name": "stoichiometries",
                            "type": "AMAZON.NUMBER"
                        }
                    ],
                    "samples": [
                        "stoichiometries are {stoichiometries}",
                        "stoichiometries are all one",
                        "all stoichiometries are one",
                        "stoichiometries include {stoichiometries}",
                        "the stoichiometric factors are {stoichiometries}",
                        "the stoichiometries are {stoichiometries}"
                    ]
                },
                {
                    "name": "QuickCalculationIntent",
                    "slots": [
                        {
                            "name": "molecule",
                            "type": "AMAZON.Musician"
                        }
                    ],
                    "samples": [
                        "quick calculation on {molecule}",
                        "perform a quick calculation for {molecule}",
                        "quick calculation for {molecule}"
                    ]
                },
                {
                    "name": "ChangeDefaultSettingsIntent",
                    "slots": [],
                    "samples": [
                        "improve default parameters again",
                        "improve default input parameters"
                    ]
                },
                {
                    "name": "GetBondLengthIntent",
                    "slots": [
                        {
                            "name": "diatomic_name",
                            "type": "AMAZON.Musician"
                        }
                    ],
                    "samples": [
                        "calculate the bond length for {diatomic_name}",
                        "get the bond length for {diatomic_name}",
                        "what is the bond length for {diatomic_name}"
                    ]
                },
                {
                    "name": "TimeDependentDFTIntent",
                    "slots": [
                        {
                            "name": "molecule",
                            "type": "AMAZON.Musician"
                        },
                        {
                            "name": "number_excited_states",
                            "type": "AMAZON.NUMBER"
                        }
                    ],
                    "samples": [
                        "generate the absorption spectrum for {molecule} using {number_excited_states} excited states",
                        "perform a time dependent DFT calculation for {molecule} using {number_excited_states} excited states",
                        "carry out a time dependent DFT calculation for {molecule} using {number_excited_states} excited states",
                        "perform a TD-DFT calculation for {molecule} using {number_excited_states} excited states",
                        "carry out a TD-DFT calculation for {molecule} using {number_excited_states} excited states",
                        "perform a time dependent DFT calculation for {molecule}",
                        "carry out a time dependent DFT calculation for {molecule}",
                        "carry out a TD-DFT calculation for {molecule}",
                        "perform a TD-DFT calculation for {molecule}"
                    ]
                },
                {
                    "name": "IRIntent",
                    "slots": [],
                    "samples": [
                        "access the IR frequencies list",
                        "access the IR frequency list"
                    ]
                }
            ],
            "types": [
                {
                    "name": "method",
                    "values": [
                        {
                            "name": {
                                "value": "moller plesset",
                                "synonyms": [
                                    "moeller plesset perturbation theory",
                                    "Moller Plesset",
                                    "moeller plesset",
                                    "mp",
                                    "MP"
                                ]
                            }
                        },
                        {
                            "name": {
                                "value": "coupled cluster",
                                "synonyms": [
                                    "high level coupled cluster",
                                    "coupled cluster theory",
                                    "Coupled Cluster "
                                ]
                            }
                        },
                        {
                            "name": {
                                "value": "hartree fock",
                                "synonyms": [
                                    "Hartree-Fock",
                                    "hartree-fock",
                                    "HF"
                                ]
                            }
                        },
                        {
                            "name": {
                                "value": "dft",
                                "synonyms": [
                                    "density functional theory",
                                    "density functional theorem",
                                    "DFT"
                                ]
                            }
                        }
                    ]
                },
                {
                    "name": "calc_type",
                    "values": [
                        {
                            "name": {
                                "value": "optimisation and frequency",
                                "synonyms": [
                                    "optimization and frequency",
                                    "optimization/frequency",
                                    "optimisation/frequency",
                                    "optimisation plus frequency",
                                    "opt plus frequency",
                                    "opt plus freq",
                                    "opt + freq",
                                    "optimisation + frequency",
                                    "opt + frequency",
                                    "optimisation & frequency"
                                ]
                            }
                        },
                        {
                            "name": {
                                "value": "geometry optimisation",
                                "synonyms": [
                                    "Geometry Optimisation",
                                    "Geometry Optimization",
                                    "geometry optimization"
                                ]
                            }
                        },
                        {
                            "name": {
                                "value": "single point energy",
                                "synonyms": [
                                    "spe",
                                    "Single Point Energy",
                                    "SPE"
                                ]
                            }
                        }
                    ]
                },
                {
                    "name": "list_of_methods",
                    "values": [
                        {
                            "name": {
                                "value": "fourth order",
                                "synonyms": [
                                    "mp4",
                                    "4th order",
                                    "Fourth-Order",
                                    "Fourth Order",
                                    "fourth-order"
                                ]
                            }
                        },
                        {
                            "name": {
                                "value": "third order",
                                "synonyms": [
                                    "mp3",
                                    "3rd order",
                                    "Third-Order",
                                    "Third Order",
                                    "third-order"
                                ]
                            }
                        },
                        {
                            "name": {
                                "value": "lmp2"
                            }
                        },
                        {
                            "name": {
                                "value": "fci"
                            }
                        },
                        {
                            "name": {
                                "value": "qcisd"
                            }
                        },
                        {
                            "name": {
                                "value": "bccd"
                            }
                        },
                        {
                            "name": {
                                "value": "ccsd",
                                "synonyms": [
                                    "ccsdt"
                                ]
                            }
                        },
                        {
                            "name": {
                                "value": "mp2",
                                "synonyms": [
                                    "Second Order",
                                    "Second-Order",
                                    "second-order",
                                    "second order"
                                ]
                            }
                        },
                        {
                            "name": {
                                "value": "uks"
                            }
                        },
                        {
                            "name": {
                                "value": "rks"
                            }
                        },
                        {
                            "name": {
                                "value": "ks"
                            }
                        },
                        {
                            "name": {
                                "value": "uhf"
                            }
                        },
                        {
                            "name": {
                                "value": "rhf"
                            }
                        },
                        {
                            "name": {
                                "value": "hf"
                            }
                        }
                    ]
                },
                {
                    "name": "property",
                    "values": [
                        {
                            "name": {
                                "value": "dipole",
                                "synonyms": [
                                    "dipole moment"
                                ]
                            }
                        },
                        {
                            "name": {
                                "value": "electronic energy",
                                "synonyms": [
                                    "method total energy",
                                    "total energy",
                                    "method energy",
                                    "energy"
                                ]
                            }
                        }
                    ]
                },
                {
                    "name": "list_basis_set",
                    "values": [
                        {
                            "name": {
                                "value": "QZVPP",
                                "synonyms": [
                                    "qzvpp"
                                ]
                            }
                        },
                        {
                            "name": {
                                "value": "TZVPP",
                                "synonyms": [
                                    "tzvpp"
                                ]
                            }
                        },
                        {
                            "name": {
                                "value": "QZVP",
                                "synonyms": [
                                    "qzvp"
                                ]
                            }
                        },
                        {
                            "name": {
                                "value": "TZVP",
                                "synonyms": [
                                    "tzvp"
                                ]
                            }
                        },
                        {
                            "name": {
                                "value": "SVP",
                                "synonyms": [
                                    "svp"
                                ]
                            }
                        },
                        {
                            "name": {
                                "value": "augmented triple zeta",
                                "synonyms": [
                                    "Augmented Triple Zeta"
                                ]
                            }
                        },
                        {
                            "name": {
                                "value": "polarised double zeta",
                                "synonyms": [
                                    "Polarized Double Zeta",
                                    "polarized double zeta",
                                    "Polarised Double Zeta"
                                ]
                            }
                        },
                        {
                            "name": {
                                "value": "triple zeta",
                                "synonyms": [
                                    "Triple Zeta"
                                ]
                            }
                        },
                        {
                            "name": {
                                "value": "double zeta",
                                "synonyms": [
                                    "Double Zeta"
                                ]
                            }
                        },
                        {
                            "name": {
                                "value": "vdz"
                            }
                        },
                        {
                            "name": {
                                "value": "awcv5z"
                            }
                        },
                        {
                            "name": {
                                "value": "wcv5z"
                            }
                        },
                        {
                            "name": {
                                "value": "acv5z"
                            }
                        },
                        {
                            "name": {
                                "value": "cv5z"
                            }
                        },
                        {
                            "name": {
                                "value": "av5z"
                            }
                        },
                        {
                            "name": {
                                "value": "v5z"
                            }
                        },
                        {
                            "name": {
                                "value": "awcvqz"
                            }
                        },
                        {
                            "name": {
                                "value": "wcvqz"
                            }
                        },
                        {
                            "name": {
                                "value": "acvqz"
                            }
                        },
                        {
                            "name": {
                                "value": "cvqz"
                            }
                        },
                        {
                            "name": {
                                "value": "avqz"
                            }
                        },
                        {
                            "name": {
                                "value": "vqz"
                            }
                        },
                        {
                            "name": {
                                "value": "awcvtz"
                            }
                        },
                        {
                            "name": {
                                "value": "wcvtz"
                            }
                        },
                        {
                            "name": {
                                "value": "acvtz"
                            }
                        },
                        {
                            "name": {
                                "value": "cvtz"
                            }
                        },
                        {
                            "name": {
                                "value": "avtz"
                            }
                        },
                        {
                            "name": {
                                "value": "vtz"
                            }
                        },
                        {
                            "name": {
                                "value": "awcvdz"
                            }
                        },
                        {
                            "name": {
                                "value": "wcvdz"
                            }
                        },
                        {
                            "name": {
                                "value": "acvdz"
                            }
                        },
                        {
                            "name": {
                                "value": "cvdz"
                            }
                        },
                        {
                            "name": {
                                "value": "avdz"
                            }
                        }
                    ]
                },
                {
                    "name": "functional_list",
                    "values": [
                        {
                            "name": {
                                "value": "bw"
                            }
                        },
                        {
                            "name": {
                                "value": "br"
                            }
                        },
                        {
                            "name": {
                                "value": "cs2",
                                "synonyms": [
                                    "CS2"
                                ]
                            }
                        },
                        {
                            "name": {
                                "value": "cs1",
                                "synonyms": [
                                    "CS1"
                                ]
                            }
                        },
                        {
                            "name": {
                                "value": "cs"
                            }
                        },
                        {
                            "name": {
                                "value": "brueg"
                            }
                        },
                        {
                            "name": {
                                "value": "b88",
                                "synonyms": [
                                    "B. 88"
                                ]
                            }
                        },
                        {
                            "name": {
                                "value": "b3lyp5",
                                "synonyms": [
                                    "B3LYP5"
                                ]
                            }
                        },
                        {
                            "name": {
                                "value": "b86",
                                "synonyms": [
                                    "B. 86"
                                ]
                            }
                        },
                        {
                            "name": {
                                "value": "s",
                                "synonyms": [
                                    "S"
                                ]
                            }
                        },
                        {
                            "name": {
                                "value": "pbe0",
                                "synonyms": [
                                    "PBE0"
                                ]
                            }
                        },
                        {
                            "name": {
                                "value": "pbe"
                            }
                        },
                        {
                            "name": {
                                "value": "lda"
                            }
                        },
                        {
                            "name": {
                                "value": "bp86",
                                "synonyms": [
                                    "BP 86"
                                ]
                            }
                        },
                        {
                            "name": {
                                "value": "b3lyp3",
                                "synonyms": [
                                    "B3LYP3"
                                ]
                            }
                        },
                        {
                            "name": {
                                "value": "blyp"
                            }
                        },
                        {
                            "name": {
                                "value": "b3lyp",
                                "synonyms": [
                                    "B3LYP"
                                ]
                            }
                        }
                    ]
                },
                {
                    "name": "treatment_type",
                    "values": [
                        {
                            "name": {
                                "value": "none",
                                "synonyms": [
                                    "no treatment",
                                    "no"
                                ]
                            }
                        },
                        {
                            "name": {
                                "value": "both",
                                "synonyms": [
                                    "both treatments"
                                ]
                            }
                        },
                        {
                            "name": {
                                "value": "triple excitations",
                                "synonyms": [
                                    "triple excitation"
                                ]
                            }
                        },
                        {
                            "name": {
                                "value": "f12 correction",
                                "synonyms": [
                                    "f 12 correction",
                                    "F 12 correction",
                                    "f. twelve correction",
                                    "f12"
                                ]
                            }
                        }
                    ]
                },
                {
                    "name": "basis_family",
                    "values": [
                        {
                            "name": {
                                "value": "pople",
                                "synonyms": [
                                    "Pople"
                                ]
                            }
                        },
                        {
                            "name": {
                                "value": "ahlrichs",
                                "synonyms": [
                                    "Ahlrichs"
                                ]
                            }
                        },
                        {
                            "name": {
                                "value": "dunning",
                                "synonyms": [
                                    "Dunning"
                                ]
                            }
                        }
                    ]
                },
                {
                    "name": "type_slot",
                    "values": [
                        {
                            "name": {
                                "value": "tight-d augmented",
                                "synonyms": [
                                    "tight D augmented"
                                ]
                            }
                        },
                        {
                            "name": {
                                "value": "augmented"
                            }
                        },
                        {
                            "name": {
                                "value": "standard"
                            }
                        }
                    ]
                },
                {
                    "name": "decision_type",
                    "values": [
                        {
                            "name": {
                                "value": "terminate"
                            }
                        },
                        {
                            "name": {
                                "value": "proceed",
                                "synonyms": [
                                    "Proceed"
                                ]
                            }
                        }
                    ]
                }
            ]
        }
    }
}
